[
   {

        "title": "Family House",
        "description": "Custom websites and easy-to-use content management solutions that are scalable, robust and cross browser compatible. Our team has knowledge and experience in all web technologies.",
        "images": "images/r1.jpg",
        "price":  "$190,000" 
    },
    
    {
        "title": "Luxury",
        "description": "Our team will collaborate with you to understand your online objectives and goals, using that information to build a secure and reliable web-based storefront.",
        "images": "images/r4.jpg",
        "price":  "$250,000" 
    },

    {
        "title": "Mansion",
        "description": "Our team specializes in developing mobile applications and websites that deliver on quality, performance and speed.",
        "images": "images/r3.jpg",
        "price":  "$150,000" 
    }
]